DS0031.CSV

Format,3.0A,
Memory Length,100000,
IntpDistance,0,
Trigger Address,1099,
Trigger Level,-1.760E+01,
Source,CH1,
Vertical Units,V,
Vertical Units Div,0,
Vertical Units Extend Div,16,
Label, ,
Probe Type,0,
Probe Ratio,1.000E+00,
Vertical Scale,2.000E-02,
Vertical Position,-4.800E-03,
Horizontal Units,S,
Horizontal Scale,1.000E-05,
Horizontal Position,4.890E-05,
Horizontal Mode,Main,
SincET Mode,Real Time,
Sampling Period,1.000E-09,
Horizontal Old Scale,1.000E-05,
Horizontal Old Position,4.890E-05,
Firmware,V1.06b20,
Time,11-Feb-26 17:34:57,
Mode,Detail,
Data Bit,8,
Waveform Data,
-1.099999e-06,-1.60e-03,
-1.098999e-06,-1.60e-03,
-1.097999e-06,-1.60e-03,
-1.096999e-06,-2.40e-03,
-1.095999e-06,-1.60e-03,
-1.094999e-06,-1.60e-03,
-1.093999e-06,-2.40e-03,
-1.092999e-06,-1.60e-03,
-1.091999e-06,-1.60e-03,
-1.090999e-06,-2.40e-03,
-1.089999e-06,-8.00e-04,
-1.088999e-06,-1.60e-03,
-1.087999e-06,-1.60e-03,
-1.086999e-06,-1.60e-03,
-1.085999e-06,-2.40e-03,
-1.084999e-06,-2.40e-03,
-1.083999e-06,-2.40e-03,
-1.082999e-06,-3.20e-03,
-1.081999e-06,-1.60e-03,
-1.080999e-06,-3.20e-03,
-1.079999e-06,-2.40e-03,
-1.078999e-06,-2.40e-03,
-1.077999e-06,-1.60e-03,
-1.076999e-06,-2.40e-03,
-1.075999e-06,-1.60e-03,
-1.074999e-06,-1.60e-03,
-1.073999e-06,-8.00e-04,
-1.072999e-06,-8.00e-04,
-1.071999e-06,-8.00e-04,
-1.070999e-06,-2.40e-03,
-1.069999e-06,-8.00e-04,
-1.068999e-06,-3.20e-03,
-1.067999e-06,-2.40e-03,
-1.066999e-06,-2.40e-03,
-1.065999e-06,-2.40e-03,
-1.064999e-06,-3.20e-03,
-1.063999e-06,-2.40e-03,
-1.062999e-06,-2.40e-03,
-1.061999e-06,-2.40e-03,
-1.060999e-06,-1.60e-03,
-1.059999e-06,-8.00e-04,
-1.058999e-06,-2.40e-03,
-1.057999e-06,-1.60e-03,
-1.056999e-06,-1.60e-03,
-1.055999e-06,-8.00e-04,
-1.054999e-06,-8.00e-04,
-1.053999e-06,-8.00e-04,
-1.052999e-06,-1.60e-03,
-1.051999e-06,-1.60e-03,
-1.050999e-06,-2.40e-03,
-1.049999e-06,-2.40e-03,
-1.048999e-06,-2.40e-03,
-1.047999e-06,-2.40e-03,
-1.046999e-06,-2.40e-03,
-1.045999e-06,-2.40e-03,
-1.044999e-06,-2.40e-03,
-1.043999e-06,-2.40e-03,
-1.042999e-06,-2.40e-03,
-1.041999e-06,-2.40e-03,
-1.040999e-06,-8.00e-04,
-1.039999e-06,-2.40e-03,
-1.038999e-06,-1.60e-03,
-1.037999e-06,-1.60e-03,
-1.036999e-06,-8.00e-04,
-1.035999e-06,-1.60e-03,
-1.034999e-06,-2.40e-03,
-1.033999e-06,-1.60e-03,
-1.032999e-06,-1.60e-03,
-1.031999e-06,-3.20e-03,
-1.030999e-06,-1.60e-03,
-1.029999e-06,-2.40e-03,
-1.028999e-06,-2.40e-03,
-1.027999e-06,-2.40e-03,
-1.026999e-06,-2.40e-03,
-1.025999e-06,-2.40e-03,
-1.024999e-06,-2.40e-03,
-1.023999e-06,-1.60e-03,
-1.022999e-06,-2.40e-03,
-1.021999e-06,-2.40e-03,
-1.020999e-06,-2.40e-03,
-1.019999e-06,-2.40e-03,
-1.018999e-06,-2.40e-03,
-1.017999e-06,-2.40e-03,
-1.016999e-06,-2.40e-03,
-1.015999e-06,-2.40e-03,
-1.014999e-06,-1.60e-03,
-1.013999e-06,-1.60e-03,
-1.012999e-06,-8.00e-04,
-1.011999e-06,-8.00e-04,
-1.010999e-06,-8.00e-04,
-1.009999e-06,-1.60e-03,
-1.008999e-06,0.00e+00,
-1.007999e-06,-8.00e-04,
-1.006999e-06,-8.00e-04,
-1.005999e-06,-1.60e-03,
-1.004999e-06,-1.60e-03,
-1.003999e-06,-2.40e-03,
-1.002999e-06,-3.20e-03,
-1.001999e-06,-2.40e-03,
-1.000999e-06,-1.60e-03,
-9.999987e-07,-2.40e-03,
-9.989987e-07,-2.40e-03,
-9.979987e-07,-1.60e-03,
-9.969987e-07,-2.40e-03,
-9.959987e-07,-8.00e-04,
-9.949987e-07,-8.00e-04,
-9.939987e-07,-8.00e-04,
-9.929987e-07,-8.00e-04,
-9.919987e-07,-8.00e-04,
-9.909987e-07,-8.00e-04,
-9.899987e-07,-8.00e-04,
-9.889987e-07,-1.60e-03,
-9.879987e-07,-1.60e-03,
-9.869987e-07,-2.40e-03,
-9.859987e-07,-3.20e-03,
-9.849987e-07,-3.20e-03,
-9.839987e-07,-2.40e-03,
-9.829987e-07,-3.20e-03,
-9.819987e-07,-2.40e-03,
-9.809987e-07,-2.40e-03,
-9.799987e-07,-3.20e-03,
-9.789987e-07,-2.40e-03,
-9.779987e-07,-1.60e-03,
-9.769987e-07,-2.40e-03,
-9.759987e-07,-1.60e-03,
-9.749987e-07,-2.40e-03,
-9.739987e-07,-2.40e-03,
-9.729987e-07,-2.40e-03,
-9.719987e-07,-2.40e-03,
-9.709987e-07,-2.40e-03,
-9.699987e-07,-2.40e-03,
-9.689987e-07,-2.40e-03,
-9.679987e-07,-2.40e-03,
-9.669987e-07,-1.60e-03,
-9.659987e-07,-2.40e-03,
-9.649987e-07,-1.60e-03,
-9.639987e-07,-8.00e-04,
-9.629987e-07,-1.60e-03,
-9.619987e-07,-2.40e-03,
-9.609987e-07,-2.40e-03,
-9.599987e-07,-1.60e-03,
-9.589987e-07,-1.60e-03,
-9.579987e-07,-3.20e-03,
-9.569987e-07,-2.40e-03,
-9.559987e-07,-1.60e-03,
-9.549987e-07,-2.40e-03,
-9.539987e-07,-3.20e-03,
-9.529987e-07,-1.60e-03,
-9.519987e-07,-2.40e-03,
-9.509987e-07,0.00e+00,
-9.499987e-07,-8.00e-04,
-9.489987e-07,-1.60e-03,
-9.479987e-07,0.00e+00,
-9.469987e-07,-1.60e-03,
-9.459987e-07,0.00e+00,
-9.449987e-07,-1.60e-03,
-9.439987e-07,0.00e+00,
-9.429987e-07,-1.60e-03,
-9.419987e-07,-8.00e-04,
-9.409987e-07,-1.60e-03,
-9.399987e-07,-1.60e-03,
-9.389987e-07,-2.40e-03,
-9.379987e-07,-1.60e-03,
-9.369987e-07,-1.60e-03,
-9.359987e-07,-1.60e-03,
-9.349987e-07,-1.60e-03,
-9.339987e-07,-1.60e-03,
-9.329987e-07,-8.00e-04,
-9.319987e-07,-8.00e-04,
-9.309987e-07,-8.00e-04,
-9.299987e-07,-8.00e-04,
-9.289987e-07,-8.00e-04,
-9.279987e-07,-8.00e-04,
-9.269987e-07,-1.60e-03,
-9.259987e-07,-1.60e-03,
-9.249987e-07,-2.40e-03,
-9.239987e-07,-2.40e-03,
-9.229987e-07,-3.20e-03,
-9.219987e-07,-3.20e-03,
-9.209987e-07,-3.20e-03,
-9.199987e-07,-3.20e-03,
-9.189987e-07,-3.20e-03,
-9.179987e-07,-3.20e-03,
-9.169987e-07,-2.40e-03,
-9.159987e-07,-1.60e-03,
-9.149987e-07,-1.60e-03,
-9.139987e-07,-2.40e-03,
-9.129987e-07,-1.60e-03,
-9.119987e-07,-1.60e-03,
-9.109987e-07,-3.20e-03,
-9.099987e-07,-2.40e-03,
-9.089987e-07,-2.40e-03,
-9.079987e-07,-2.40e-03,
-9.069987e-07,-2.40e-03,
-9.059987e-07,-3.20e-03,
-9.049987e-07,-3.20e-03,
-9.039987e-07,-2.40e-03,
-9.029987e-07,-4.00e-03,
-9.019987e-07,-1.60e-03,
-9.009987e-07,-2.40e-03,
-8.999987e-07,-2.40e-03,
-8.989987e-07,-2.40e-03,
-8.979987e-07,-1.60e-03,
-8.969987e-07,-1.60e-03,
-8.959987e-07,-2.40e-03,
-8.949987e-07,-2.40e-03,
-8.939987e-07,-1.60e-03,
-8.929987e-07,-2.40e-03,
-8.919987e-07,-1.60e-03,
-8.909987e-07,-3.20e-03,
-8.899987e-07,-1.60e-03,
-8.889987e-07,-1.60e-03,
-8.879987e-07,0.00e+00,
-8.869987e-07,-1.60e-03,
-8.859987e-07,-1.60e-03,
-8.849987e-07,-8.00e-04,
-8.839987e-07,-8.00e-04,
-8.829987e-07,-2.40e-03,
-8.819987e-07,-8.00e-04,
-8.809987e-07,-1.60e-03,
-8.799987e-07,-2.40e-03,
-8.789987e-07,-2.40e-03,
-8.779987e-07,-2.40e-03,
-8.769987e-07,-2.40e-03,
-8.759987e-07,-1.60e-03,
-8.749987e-07,-1.60e-03,
-8.739987e-07,-1.60e-03,
-8.729987e-07,-1.60e-03,
-8.719987e-07,-8.00e-04,
-8.709987e-07,-8.00e-04,
-8.699987e-07,-8.00e-04,
-8.689987e-07,-8.00e-04,
-8.679987e-07,-8.00e-04,
-8.669987e-07,-8.00e-04,
-8.659987e-07,0.00e+00,
-8.649987e-07,-1.60e-03,
-8.639987e-07,-1.60e-03,
-8.629987e-07,-8.00e-04,
-8.619987e-07,-2.40e-03,
-8.609987e-07,-3.20e-03,
-8.599987e-07,-2.40e-03,
-8.589987e-07,-3.20e-03,
-8.579987e-07,-2.40e-03,
-8.569987e-07,-1.60e-03,
-8.559987e-07,-1.60e-03,
-8.549987e-07,-1.60e-03,
-8.539987e-07,-1.60e-03,
-8.529987e-07,-1.60e-03,
-8.519987e-07,-8.00e-04,
-8.509987e-07,-8.00e-04,
-8.499987e-07,-8.00e-04,
-8.489987e-07,-1.60e-03,
-8.479987e-07,-1.60e-03,
-8.469987e-07,-1.60e-03,
-8.459987e-07,-1.60e-03,
-8.449987e-07,-1.60e-03,
-8.439987e-07,-1.60e-03,
-8.429987e-07,-1.60e-03,
-8.419987e-07,-2.40e-03,
-8.409987e-07,-1.60e-03,
-8.399987e-07,-1.60e-03,
-8.389987e-07,-8.00e-04,
-8.379987e-07,-8.00e-04,
-8.369987e-07,-8.00e-04,
-8.359987e-07,-1.60e-03,
-8.349987e-07,-1.60e-03,
-8.339987e-07,-8.00e-04,
-8.329987e-07,-2.40e-03,
-8.319987e-07,-2.40e-03,
-8.309987e-07,-2.40e-03,
-8.299987e-07,-2.40e-03,
-8.289987e-07,-2.40e-03,
-8.279987e-07,-1.60e-03,
-8.269987e-07,-1.60e-03,
-8.259987e-07,-8.00e-04,
-8.249987e-07,-1.60e-03,
-8.239987e-07,-8.00e-04,
-8.229987e-07,-8.00e-04,
-8.219987e-07,-8.00e-04,
-8.209987e-07,-8.00e-04,
-8.199987e-07,-8.00e-04,
-8.189987e-07,-8.00e-04,
-8.179987e-07,-1.60e-03,
-8.169987e-07,-1.60e-03,
-8.159987e-07,-1.60e-03,
-8.149987e-07,-1.60e-03,
-8.139987e-07,-2.40e-03,
-8.129987e-07,-1.60e-03,
-8.119987e-07,-2.40e-03,
-8.109987e-07,-1.60e-03,
-8.099987e-07,-1.60e-03,
-8.089987e-07,-8.00e-04,
-8.079987e-07,-1.60e-03,
-8.069987e-07,0.00e+00,
-8.059987e-07,-8.00e-04,
-8.049987e-07,0.00e+00,
-8.039987e-07,-8.00e-04,
-8.029987e-07,-8.00e-04,
-8.019987e-07,-8.00e-04,
-8.009987e-07,-1.60e-03,
-7.999987e-07,-1.60e-03,
-7.989987e-07,-2.40e-03,
-7.979987e-07,-2.40e-03,
-7.969987e-07,-1.60e-03,
-7.959987e-07,-1.60e-03,
-7.949987e-07,-1.60e-03,
-7.939987e-07,-1.60e-03,
-7.929987e-07,-8.00e-04,
-7.919987e-07,-8.00e-04,
-7.909987e-07,-1.60e-03,
-7.899987e-07,-8.00e-04,
-7.889987e-07,-8.00e-04,
-7.879987e-07,-8.00e-04,
-7.869987e-07,-8.00e-04,
-7.859987e-07,-8.00e-04,
-7.849987e-07,-1.60e-03,
-7.839987e-07,-1.60e-03,
-7.829987e-07,-1.60e-03,
-7.819987e-07,-2.40e-03,
-7.809987e-07,-2.40e-03,
-7.799987e-07,-2.40e-03,
-7.789987e-07,-1.60e-03,
-7.779987e-07,-1.60e-03,
-7.769987e-07,-8.00e-04,
-7.759987e-07,-8.00e-04,
-7.749987e-07,-8.00e-04,
-7.739987e-07,-8.00e-04,
-7.729987e-07,-8.00e-04,
-7.719987e-07,-1.60e-03,
-7.709987e-07,-1.60e-03,
-7.699987e-07,-1.60e-03,
-7.689987e-07,-1.60e-03,
-7.679987e-07,-8.00e-04,
-7.669987e-07,-2.40e-03,
-7.659987e-07,-1.60e-03,
-7.649987e-07,-1.60e-03,
-7.639987e-07,-1.60e-03,
-7.629987e-07,-8.00e-04,
-7.619987e-07,-8.00e-04,
-7.609987e-07,0.00e+00,
-7.599987e-07,0.00e+00,
-7.589987e-07,0.00e+00,
-7.579987e-07,0.00e+00,
-7.569987e-07,0.00e+00,
-7.559987e-07,0.00e+00,
-7.549987e-07,-8.00e-04,
-7.539987e-07,-1.60e-03,
-7.529987e-07,0.00e+00,
-7.519987e-07,-8.00e-04,
-7.509987e-07,-8.00e-04,
-7.499987e-07,-8.00e-04,
-7.489987e-07,-8.00e-04,
-7.479987e-07,0.00e+00,
-7.469987e-07,8.00e-04,
-7.459987e-07,0.00e+00,
-7.449987e-07,0.00e+00,
-7.439987e-07,8.00e-04,
-7.429987e-07,0.00e+00,
-7.419987e-07,0.00e+00,
-7.409987e-07,0.00e+00,
-7.399987e-07,0.00e+00,
-7.389987e-07,0.00e+00,
-7.379987e-07,0.00e+00,
-7.369987e-07,-8.00e-04,
-7.359987e-07,-1.60e-03,
-7.349987e-07,-1.60e-03,
-7.339987e-07,-2.40e-03,
-7.329987e-07,-8.00e-04,
-7.319987e-07,-1.60e-03,
-7.309987e-07,-8.00e-04,
-7.299987e-07,-8.00e-04,
-7.289987e-07,-8.00e-04,
-7.279987e-07,-8.00e-04,
-7.269987e-07,0.00e+00,
-7.259987e-07,0.00e+00,
-7.249987e-07,0.00e+00,
-7.239987e-07,0.00e+00,
-7.229987e-07,-8.00e-04,
-7.219987e-07,0.00e+00,
-7.209987e-07,-8.00e-04,
-7.199987e-07,-8.00e-04,
-7.189987e-07,-1.60e-03,
-7.179987e-07,-8.00e-04,
-7.169987e-07,-2.40e-03,
-7.159987e-07,0.00e+00,
-7.149987e-07,-8.00e-04,
-7.139987e-07,-8.00e-04,
-7.129987e-07,-8.00e-04,
-7.119987e-07,0.00e+00,
-7.109987e-07,0.00e+00,
-7.099987e-07,-8.00e-04,
-7.089987e-07,-8.00e-04,
-7.079987e-07,-8.00e-04,
-7.069987e-07,-8.00e-04,
-7.059987e-07,-8.00e-04,
-7.049987e-07,-8.00e-04,
-7.039987e-07,-1.60e-03,
-7.029987e-07,-1.60e-03,
-7.019987e-07,-8.00e-04,
-7.009987e-07,-8.00e-04,
-6.999987e-07,0.00e+00,
-6.989987e-07,0.00e+00,
-6.979987e-07,0.00e+00,
-6.969987e-07,0.00e+00,
-6.959987e-07,0.00e+00,
-6.949987e-07,0.00e+00,
-6.939987e-07,-8.00e-04,
-6.929987e-07,-1.60e-03,
-6.919987e-07,-8.00e-04,
-6.909987e-07,-1.60e-03,
-6.899987e-07,-1.60e-03,
-6.889987e-07,-1.60e-03,
-6.879987e-07,-1.60e-03,
-6.869987e-07,-1.60e-03,
-6.859987e-07,-1.60e-03,
-6.849987e-07,-1.60e-03,
-6.839987e-07,-8.00e-04,
-6.829987e-07,-1.60e-03,
-6.819987e-07,-8.00e-04,
-6.809987e-07,-8.00e-04,
-6.799987e-07,-8.00e-04,
-6.789987e-07,-8.00e-04,
-6.779987e-07,-8.00e-04,
-6.769987e-07,-2.40e-03,
-6.759987e-07,-1.60e-03,
-6.749987e-07,-2.40e-03,
-6.739987e-07,-2.40e-03,
-6.729987e-07,-2.40e-03,
-6.719987e-07,-3.20e-03,
-6.709987e-07,-2.40e-03,
-6.699987e-07,-3.20e-03,
-6.689987e-07,-2.40e-03,
-6.679987e-07,-2.40e-03,
-6.669987e-07,-3.20e-03,
-6.659987e-07,-2.40e-03,
-6.649987e-07,-2.40e-03,
-6.639987e-07,-2.40e-03,
-6.629987e-07,-2.40e-03,
-6.619987e-07,-4.00e-03,
-6.609987e-07,-3.20e-03,
-6.599987e-07,-3.20e-03,
-6.589987e-07,-4.00e-03,
-6.579987e-07,-3.20e-03,
-6.569987e-07,-2.40e-03,
-6.559987e-07,-2.40e-03,
-6.549987e-07,-4.00e-03,
-6.539987e-07,-3.20e-03,
-6.529987e-07,-3.20e-03,
-6.519987e-07,-2.40e-03,
-6.509987e-07,-3.20e-03,
-6.499987e-07,-3.20e-03,
-6.489987e-07,-3.20e-03,
-6.479987e-07,-2.40e-03,
-6.469987e-07,-3.20e-03,
-6.459987e-07,-4.00e-03,
-6.449987e-07,-4.00e-03,
-6.439987e-07,-4.00e-03,
-6.429987e-07,-3.20e-03,
-6.419987e-07,-4.80e-03,
-6.409987e-07,-4.00e-03,
-6.399987e-07,-3.20e-03,
-6.389987e-07,-3.20e-03,
-6.379987e-07,-2.40e-03,
-6.369987e-07,-3.20e-03,
-6.359988e-07,-2.40e-03,
-6.349988e-07,-2.40e-03,
-6.339988e-07,-2.40e-03,
-6.329988e-07,-2.40e-03,
-6.319988e-07,-2.40e-03,
-6.309988e-07,-3.20e-03,
-6.299988e-07,-3.20e-03,
-6.289988e-07,-3.20e-03,
-6.279988e-07,-4.00e-03,
-6.269988e-07,-4.00e-03,
-6.259988e-07,-3.20e-03,
-6.249988e-07,-4.80e-03,
-6.239988e-07,-3.20e-03,
-6.229988e-07,-4.00e-03,
-6.219988e-07,-3.20e-03,
-6.209988e-07,-4.00e-03,
-6.199988e-07,-4.00e-03,
-6.189988e-07,-3.20e-03,
-6.179988e-07,-4.00e-03,
-6.169988e-07,-4.00e-03,
-6.159988e-07,-2.40e-03,
-6.149988e-07,-3.20e-03,
-6.139988e-07,-4.00e-03,
-6.129988e-07,-4.80e-03,
-6.119988e-07,-4.80e-03,
-6.109988e-07,-4.80e-03,
-6.099988e-07,-5.60e-03,
-6.089988e-07,-5.60e-03,
-6.079988e-07,-5.60e-03,
-6.069988e-07,-4.80e-03,
-6.059988e-07,-5.60e-03,
-6.049988e-07,-4.80e-03,
-6.039988e-07,-4.00e-03,
-6.029988e-07,-4.00e-03,
-6.019988e-07,-2.40e-03,
-6.009988e-07,-4.00e-03,
-5.999988e-07,-4.00e-03,
-5.989988e-07,-4.00e-03,
-5.979988e-07,-4.00e-03,
-5.969988e-07,-4.80e-03,
-5.959988e-07,-4.80e-03,
-5.949988e-07,-5.60e-03,
-5.939988e-07,-5.60e-03,
-5.929988e-07,-5.60e-03,
-5.919988e-07,-4.80e-03,
-5.909988e-07,-4.80e-03,
-5.899988e-07,-4.80e-03,
-5.889988e-07,-4.80e-03,
-5.879988e-07,-4.80e-03,
-5.869988e-07,-4.80e-03,
-5.859988e-07,-4.00e-03,
-5.849988e-07,-4.00e-03,
-5.839988e-07,-4.80e-03,
-5.829988e-07,-4.00e-03,
-5.819988e-07,-4.80e-03,
-5.809988e-07,-5.60e-03,
-5.799988e-07,-4.80e-03,
-5.789988e-07,-4.00e-03,
-5.779988e-07,-5.60e-03,
-5.769988e-07,-3.20e-03,
-5.759988e-07,-4.00e-03,
-5.749988e-07,-3.20e-03,
-5.739988e-07,-3.20e-03,
-5.729988e-07,-3.20e-03,
-5.719988e-07,-2.40e-03,
-5.709988e-07,-3.20e-03,
-5.699988e-07,-2.40e-03,
-5.689988e-07,-3.20e-03,
-5.679988e-07,-3.20e-03,
-5.669988e-07,-3.20e-03,
-5.659988e-07,-4.00e-03,
-5.649988e-07,-4.00e-03,
-5.639988e-07,-4.00e-03,
-5.629988e-07,-3.20e-03,
-5.619988e-07,-4.00e-03,
-5.609988e-07,-2.40e-03,
-5.599988e-07,-3.20e-03,
-5.589988e-07,-2.40e-03,
-5.579988e-07,-2.40e-03,
-5.569988e-07,-3.20e-03,
-5.559988e-07,-2.40e-03,
-5.549988e-07,-2.40e-03,
-5.539988e-07,-2.40e-03,
-5.529988e-07,-2.40e-03,
-5.519988e-07,-2.40e-03,
-5.509988e-07,-3.20e-03,
-5.499988e-07,-4.00e-03,
-5.489988e-07,-4.80e-03,
-5.479988e-07,-4.00e-03,
-5.469988e-07,-4.00e-03,
-5.459988e-07,-4.00e-03,
-5.449988e-07,-4.00e-03,
-5.439988e-07,-4.00e-03,
-5.429988e-07,-4.00e-03,
-5.419988e-07,-4.80e-03,
-5.409988e-07,-4.00e-03,
-5.399988e-07,-4.00e-03,
-5.389988e-07,-4.00e-03,
-5.379988e-07,-3.20e-03,
-5.369988e-07,-4.00e-03,
-5.359988e-07,-3.20e-03,
-5.349988e-07,-3.20e-03,
-5.339988e-07,-3.20e-03,
-5.329988e-07,-4.00e-03,
-5.319988e-07,-4.00e-03,
-5.309988e-07,-4.00e-03,
-5.299988e-07,-3.20e-03,
-5.289988e-07,-4.00e-03,
-5.279988e-07,-2.40e-03,
-5.269988e-07,-4.00e-03,
-5.259988e-07,-2.40e-03,
-5.249988e-07,-4.00e-03,
-5.239988e-07,-3.20e-03,
-5.229988e-07,-3.20e-03,
-5.219988e-07,-3.20e-03,
-5.209988e-07,-4.00e-03,
-5.199988e-07,-4.00e-03,
-5.189988e-07,-3.20e-03,
-5.179988e-07,-3.20e-03,
-5.169988e-07,-4.00e-03,
-5.159988e-07,-3.20e-03,
-5.149988e-07,-3.20e-03,
-5.139988e-07,-2.40e-03,
-5.129988e-07,-2.40e-03,
-5.119988e-07,-1.60e-03,
-5.109988e-07,-2.40e-03,
-5.099988e-07,-2.40e-03,
-5.089988e-07,-1.60e-03,
-5.079988e-07,-1.60e-03,
-5.069988e-07,-2.40e-03,
-5.059988e-07,-2.40e-03,
-5.049988e-07,-2.40e-03,
-5.039988e-07,-2.40e-03,
-5.029988e-07,-3.20e-03,
-5.019988e-07,-3.20e-03,
-5.009988e-07,-4.00e-03,
-4.999988e-07,-2.40e-03,
-4.989988e-07,-3.20e-03,
-4.979988e-07,-2.40e-03,
-4.969988e-07,-1.60e-03,
-4.959988e-07,-1.60e-03,
-4.949988e-07,-1.60e-03,
-4.939988e-07,-8.00e-04,
-4.929988e-07,-1.60e-03,
-4.919988e-07,-8.00e-04,
-4.909988e-07,-8.00e-04,
-4.899988e-07,-1.60e-03,
-4.889988e-07,-1.60e-03,
-4.879988e-07,-1.60e-03,
-4.869988e-07,-8.00e-04,
-4.859988e-07,-3.20e-03,
-4.849988e-07,-2.40e-03,
-4.839988e-07,-2.40e-03,
-4.829988e-07,-1.60e-03,
-4.819988e-07,-2.40e-03,
-4.809988e-07,-2.40e-03,
-4.799988e-07,-1.60e-03,
-4.789988e-07,-1.60e-03,
-4.779988e-07,-8.00e-04,
-4.769988e-07,-1.60e-03,
-4.759988e-07,-1.60e-03,
-4.749988e-07,-1.60e-03,
-4.739988e-07,-8.00e-04,
-4.729988e-07,-8.00e-04,
-4.719988e-07,-1.60e-03,
-4.709988e-07,-1.60e-03,
-4.699988e-07,-2.40e-03,
-4.689988e-07,-1.60e-03,
-4.679988e-07,-1.60e-03,
-4.669988e-07,-2.40e-03,
-4.659988e-07,-1.60e-03,
-4.649988e-07,-1.60e-03,
-4.639988e-07,-8.00e-04,
-4.629988e-07,-8.00e-04,
-4.619988e-07,-8.00e-04,
-4.609988e-07,0.00e+00,
-4.599988e-07,-8.00e-04,
-4.589988e-07,-8.00e-04,
-4.579988e-07,-1.60e-03,
-4.569988e-07,-1.60e-03,
-4.559988e-07,-1.60e-03,
-4.549988e-07,-2.40e-03,
-4.539988e-07,-1.60e-03,
-4.529988e-07,-1.60e-03,
-4.519988e-07,-1.60e-03,
-4.509988e-07,-8.00e-04,
-4.499988e-07,-8.00e-04,
-4.489988e-07,-8.00e-04,
-4.479988e-07,0.00e+00,
-4.469988e-07,-8.00e-04,
-4.459988e-07,-8.00e-04,
-4.449988e-07,-8.00e-04,
-4.439988e-07,-1.60e-03,
-4.429988e-07,-8.00e-04,
-4.419988e-07,-1.60e-03,
-4.409988e-07,-8.00e-04,
-4.399988e-07,-1.60e-03,
-4.389988e-07,-8.00e-04,
-4.379988e-07,-1.60e-03,
-4.369988e-07,-8.00e-04,
-4.359988e-07,-1.60e-03,
-4.349988e-07,-8.00e-04,
-4.339988e-07,-1.60e-03,
-4.329988e-07,-8.00e-04,
-4.319988e-07,-8.00e-04,
-4.309988e-07,8.00e-04,
-4.299988e-07,-8.00e-04,
-4.289988e-07,-8.00e-04,
-4.279988e-07,-8.00e-04,
-4.269988e-07,-8.00e-04,
-4.259988e-07,-8.00e-04,
-4.249988e-07,-8.00e-04,
-4.239988e-07,-1.60e-03,
-4.229988e-07,-1.60e-03,
-4.219988e-07,-1.60e-03,
-4.209988e-07,-1.60e-03,
-4.199988e-07,-2.40e-03,
-4.189988e-07,-1.60e-03,
-4.179988e-07,-1.60e-03,
-4.169988e-07,-1.60e-03,
-4.159988e-07,-8.00e-04,
-4.149988e-07,0.00e+00,
-4.139988e-07,-8.00e-04,
-4.129988e-07,0.00e+00,
-4.119988e-07,-1.60e-03,
-4.109988e-07,-8.00e-04,
-4.099988e-07,0.00e+00,
-4.089988e-07,-8.00e-04,
-4.079988e-07,-8.00e-04,
-4.069988e-07,-8.00e-04,
-4.059988e-07,-8.00e-04,
-4.049988e-07,-8.00e-04,
-4.039988e-07,-1.60e-03,
-4.029988e-07,-8.00e-04,
-4.019988e-07,-8.00e-04,
-4.009988e-07,0.00e+00,
-3.999988e-07,-8.00e-04,
-3.989988e-07,0.00e+00,
-3.979988e-07,0.00e+00,
-3.969988e-07,-8.00e-04,
-3.959988e-07,-8.00e-04,
-3.949988e-07,-1.60e-03,
-3.939988e-07,-8.00e-04,
-3.929988e-07,-8.00e-04,
-3.919988e-07,-8.00e-04,
-3.909988e-07,0.00e+00,
-3.899988e-07,0.00e+00,
-3.889988e-07,0.00e+00,
-3.879988e-07,8.00e-04,
-3.869988e-07,0.00e+00,
-3.859988e-07,1.60e-03,
-3.849988e-07,8.00e-04,
-3.839988e-07,8.00e-04,
-3.829988e-07,8.00e-04,
-3.819988e-07,8.00e-04,
-3.809988e-07,8.00e-04,
-3.799988e-07,0.00e+00,
-3.789988e-07,0.00e+00,
-3.779988e-07,0.00e+00,
-3.769988e-07,0.00e+00,
-3.759988e-07,0.00e+00,
-3.749988e-07,0.00e+00,
-3.739988e-07,8.00e-04,
-3.729988e-07,-8.00e-04,
-3.719988e-07,8.00e-04,
-3.709988e-07,8.00e-04,
-3.699988e-07,1.60e-03,
-3.689988e-07,8.00e-04,
-3.679988e-07,8.00e-04,
-3.669988e-07,8.00e-04,
-3.659988e-07,8.00e-04,
-3.649988e-07,8.00e-04,
-3.639988e-07,8.00e-04,
-3.629988e-07,0.00e+00,
-3.619988e-07,8.00e-04,
-3.609988e-07,0.00e+00,
-3.599988e-07,-8.00e-04,
-3.589988e-07,0.00e+00,
-3.579988e-07,-8.00e-04,
-3.569988e-07,0.00e+00,
-3.559988e-07,8.00e-04,
-3.549988e-07,0.00e+00,
-3.539988e-07,8.00e-04,
-3.529988e-07,8.00e-04,
-3.519988e-07,8.00e-04,
-3.509988e-07,0.00e+00,
-3.499988e-07,0.00e+00,
-3.489988e-07,0.00e+00,
-3.479988e-07,0.00e+00,
-3.469988e-07,8.00e-04,
-3.459988e-07,0.00e+00,
-3.449988e-07,0.00e+00,
-3.439988e-07,0.00e+00,
-3.429988e-07,0.00e+00,
-3.419988e-07,8.00e-04,
-3.409988e-07,0.00e+00,
-3.399988e-07,8.00e-04,
-3.389988e-07,-8.00e-04,
-3.379988e-07,8.00e-04,
-3.369988e-07,0.00e+00,
-3.359988e-07,0.00e+00,
-3.349988e-07,8.00e-04,
-3.339988e-07,0.00e+00,
-3.329988e-07,0.00e+00,
-3.319988e-07,-8.00e-04,
-3.309988e-07,-8.00e-04,
-3.299988e-07,-8.00e-04,
-3.289988e-07,-8.00e-04,
-3.279988e-07,-8.00e-04,
-3.269988e-07,-8.00e-04,
-3.259988e-07,8.00e-04,
-3.249988e-07,8.00e-04,
-3.239988e-07,8.00e-04,
-3.229988e-07,1.60e-03,
-3.219988e-07,1.60e-03,
-3.209988e-07,1.60e-03,
-3.199988e-07,1.60e-03,
